[
  {
    "diff": "--- a/doc/update/5.4-to-6.0.md\n+++ b/doc/update/5.4-to-6.0.md\n@@ -71,6 +71,8 @@\n sudo -u git -H bundle exec rake migrate_keys RAILS_ENV=production\n sudo -u git -H bundle exec rake migrate_inline_notes RAILS_ENV=production\n \n+sudo -u git -H bundle exec rake gitlab:assets:compile RAILS_ENV=production\n+\n ```\n \n ### 6. Update config files",
    "new_path": "doc/update/5.4-to-6.0.md",
    "old_path": "doc/update/5.4-to-6.0.md",
    "a_mode": null,
    "b_mode": "100644",
    "new_file": false,
    "renamed_file": false,
    "deleted_file": false
  }
]
